{
    "fw-hw-specifics": {
        "hw-version": "8.5",
        "hw-processor-name":"PIC24FJ256GB106",
        "hw-flash-int16-endian": "little-endian",
        "hw-flash-int32-constructed-by-int16": false,
        "hw-flash-int32-endian": "little-endian",
        "hw-target-type": "idesk",
        "hw-flash-padding": true,
        "hw-flash-restrictions-uneven-int8-address-allowed": true,
        "hw-flash-restrictions-uneven-int16-address-allowed": false,
        "hw-flash-restrictions-uneven-int32-address-allowed": false,
        "hw-flash-restrictions-uneven-string-address-allowed": false,
        "hw-flash-restrictions-uneven-string-string-address-allowed": true,

        "fw-version": "1.18.0",
        "fw-features": ["WLAN","BLUETOOTH"],
        "fw-boot-loader-version": "1.0.0",
        "fw-boot-loader-flash-start-address": "0x00000000",
        "fw-boot-loader-flash-end-address": "0x000027FF",
        "fw-flash-start-address": "0x00002800",
        "fw-flash-end-address": "0x7FFFFFFF",
        "fw-customization-flash-address": "0x00054800",
        "fw-customization-flash-nof-rows": 8,
        "fw-customization-flash-row-useful-data-size": 128
    },

    "device-config": [
        {
            "data-type": "uint",
            "hidden-data": false,
            "access-level": 1,
            "data": 287454020,
            "comment": "DeviceId 287454020 => 0x11223344",
            "flash-special": {
                "order": [2,3,0,1],
                "comment": "Special order indeces - if set, it must contain 'flash-size' indices. Ind-0 = LSB, .., Ind 3 = MSB"
            },
            "flash-size": 4,
            "flash-row-start-index": 0,
            "flash-start-index": 0,
            "value-name": "deviceId",
            "visible": true
        },
        {
            "data-type": "uint",
            "hidden-data": false,
            "access-level": 1,
            "data": 6600,
            "comment": "Desk offset",
            "flash-size": 2,
            "flash-row-start-index": 0,
            "flash-start-index": 4,
            "value-name": "deskOffset",
            "visible": true
        },
        {
            "data-type": "uint",
            "hidden-data": false,
            "access-level": 1,
            "data": 1,
            "comment": "True Imperiad, False Metric cm",
            "flash-size": 1,
            "flash-row-start-index": 0,
            "flash-start-index": 6,
            "value-name": "units",
            "visible": true
        },
        {
            "data-type": "uint",
            "hidden-data": false,
            "access-level": 1,
            "data": 15,
            "comment": "Minutes after disconnect until automatic",
            "flash-size": 1,
            "flash-row-start-index": 0,
            "flash-start-index": 7,
            "value-name": "disconnectDelay",
            "visible": true
        },
        {
            "data-type": "string",
            "hidden-data": false,
            "access-level": 1,
            "data": "http://stage-remote.intelligentdesk.com",
            "comment": "",
            "flash-size": 64,
            "flash-row-start-index": 0,
            "flash-start-index": 8,
            "value-name": "serverUrl",
            "visible": true
        },
        {
            "data-type": "string",
            "hidden-data": false,
            "access-level": 1,
            "data": "IntelligentDesk",
            "comment": "Zone info",
            "flash-size": 16,
            "flash-row-start-index": 0,
            "flash-start-index": 72,
            "value-name": "deviceName",
            "visible": true
        },
        {
            "data-type": "bit-fields",
            "hidden-data": false,
            "access-level": 1,
            "data": 0,
            "bit-field-nof-bits": 1,
            "bit-field-start-index": 0,
            "comment": "Indicate whether flash settings are valid or not",
            "flash-size": 2,
            "flash-row-start-index": 0,
            "flash-start-index": 88,
            "value-name": "flags.useFlashAppconfig",
            "visible": true
        },
        {
            "data-type": "bit-fields",
            "hidden-data": false,
            "access-level": 1,
            "data": 0,
            "bit-field-nof-bits": 1,
            "bit-field-start-index": 1,
            "comment": "",
            "flash-size": 2,
            "flash-row-start-index": 0,
            "flash-start-index": 88,
            "value-name": "flags.BTAutoReconnect",
            "visible": true
        },
        {
            "data-type": "bit-fields",
            "hidden-data": false,
            "access-level": 1,
            "data": 1,
            "bit-field-nof-bits": 1,
            "bit-field-start-index": 2,
            "comment": "",
            "flash-size": 2,
            "flash-row-start-index": 0,
            "flash-start-index": 88,
            "value-name": "flags.disableSoftAP",
            "visible": true
        },
        {
            "data-type": "uint",
            "hidden-data": false,
            "access-level": 1,
            "data": 15,
            "comment": "Reconnect Timer in seconds",
            "flash-size": 1,
            "flash-row-start-index": 0,
            "flash-start-index": 90,
            "value-name": "RCTime",
            "visible": true
        },
        {
            "data-type": "filler",
            "hidden-data": false,
            "access-level": 1,
            "data": 0,
            "comment": "Fills (size bytes) of flash with value = 255 for the rest of row 0",
            "flash-size": 1,
            "flash-row-start-index": 0,
            "flash-start-index": 91,
            "value-name": "Uneven-Filler",
            "visible": false
        },
        {
            "data-type": "uint",
            "hidden-data": false,
            "access-level": 1,
            "data": 0,
            "comment": "Indicate valid profiles - set to 0 when calculating checksum",
            "flash-size": 2,
            "flash-row-start-index": 0,
            "flash-start-index": 92,
            "value-name": "checkSum",
            "visible": true
        }
    ],

    "wlan-config-1": [
        {
            "data-type": "string",
            "hidden-data": false,
            "access-level": 1,
            "data": "",
            "comment": "",
            "flash-size": 33,
            "flash-row-start-index": 4,
            "flash-start-index": 0,
            "value-name": "ssid1",
            "visible": true
        },
        {
            "data-type": "string",
            "hidden-data": true,
            "access-level": 1,
            "data": "",
            "comment": "",
            "flash-size": 65,
            "flash-row-start-index": 4,
            "flash-start-index": 33,
            "value-name": "psk1",
            "visible": true
        },
        {
            "data-type": "uint",
            "hidden-data": false,
            "access-level": 1,
            "data": 8,
            "comment": "",
            "flash-size": 1,
            "flash-row-start-index": 4,
            "flash-start-index": 98,
            "value-name": "sec1",
            "visible": true
        },
        {
            "data-type": "filler",
            "hidden-data": false,
            "access-level": 1,
            "data": 255,
            "comment": "",
            "flash-size": 1,
            "flash-row-start-index": 4,
            "flash-start-index": 99,
            "value-name": "wlan-uneven-filler1",
            "visible": false
        }
    ],

    "wlan-config-2": [
        {
            "data-type": "string",
            "hidden-data": false,
            "access-level": 1,
            "data": "ROLigt",
            "comment": "",
            "flash-size": 33,
            "flash-row-start-index": 5,
            "flash-start-index": 0,
            "value-name": "ssid2",
            "visible": true
        },
        {
            "data-type": "string",
            "hidden-data": true,
            "access-level": 1,
            "data": "knaprigachips",
            "comment": "",
            "flash-size": 65,
            "flash-row-start-index": 5,
            "flash-start-index": 33,
            "value-name": "psk2",
            "visible": true
        },
        {
            "data-type": "uint",
            "hidden-data": false,
            "access-level": 1,
            "data": 8,
            "comment": "",
            "flash-size": 1,
            "flash-row-start-index": 5,
            "flash-start-index": 98,
            "value-name": "sec2",
            "visible": true
        },
        {
            "data-type": "filler",
            "hidden-data": false,
            "access-level": 1,
            "data": 255,
            "comment": "",
            "flash-size": 1,
            "flash-row-start-index": 5,
            "flash-start-index": 99,
            "value-name": "wlan-uneven-filler2",
            "visible": false
        }
    ],

    "key-config": [
        {
            "data-type": "string",
            "hidden-data": true,
            "access-level": 1,
            "data": "ForDevelopmentOnly              ",
            "comment": "must be 32 bytes long",
            "flash-size": 34,
            "flash-row-start-index": 6,
            "flash-start-index": 0,
            "value-name": "keys.devicePSK",
            "visible": false
        },
        {
            "data-type": "uint",
            "hidden-data": false,
            "access-level": 1,
            "data": 0,
            "comment": "Checksum on firmware for update",
            "flash-size": 2,
            "flash-row-start-index": 6,
            "flash-start-index": 34,
            "value-name": "keys.FirmwareChecksum",
            "visible": false
        },
        {
            "data-type": "uint",
            "hidden-data": false,
            "access-level": 1,
            "data": 0,
            "comment": "",
            "flash-size": 2,
            "flash-row-start-index": 6,
            "flash-start-index": 36,
            "value-name": "keys.flags",
            "visible": true
        }
    ]
}
